ReadMe.txt

X10 Controller Server


button #   (1..5)
house code (A..E)
module #   (1..16)


iOS to PC



build history:



Build 0.0.1.004 | 2013-06-01 | svn 004

- UI updates
  1. added on/off color state, yellow for on, silver for off
  2. arranged on/off sate UI from horizontal fo vertical
  3. added textBoxNameLocation1..5




Build 0.0.1.003 | 2013-04-28 | svn 003

- major update on UI



Build 0.0.1.001 | 2012-11-23 | svn 002

- renamed SocketServer object to X10Server



Build 0.0.1.000 | 2012-11-23 | svn 001

- initial build